module bitbucket.com/shravannn/go-trojan-horse

go 1.21.0

require gopkg.in/gomail.v2 v2.0.0-20160411212932-81ebce5c23df

require gopkg.in/alexcesaro/quotedprintable.v3 v3.0.0-20150716171945-2caba252f4dc // indirect
